{
    "machine_info": {
        "node": "homer", 
        "processor": "x86_64", 
        "machine": "x86_64", 
        "python_compiler": "", 
        "python_implementation": "PyPy", 
        "python_version": "2.7.10", 
        "release": "3.13.0-48-generic", 
        "system": "Linux"
    }, 
    "commit_info": {
        "id": "9bdb9dbd5ae9ccf236824db3136225d4ab50505c", 
        "dirty": false
    }, 
    "benchmarks": [
        {
            "group": "getattr", 
            "name": "test_getattr[namedtuple]", 
            "fullname": "capnpy/benchmarks/test_benchmarks.py::test_getattr[namedtuple]", 
            "stats": {
                "min": 3.5559642128646374e-06, 
                "max": 0.0003187079564668238, 
                "mean": 4.285262976878487e-06, 
                "stddev": 2.829485416189792e-06, 
                "rounds": 14093, 
                "median": 4.237517714500427e-06, 
                "iqr": 3.440072759985924e-07, 
                "q1": 4.08949563279748e-06, 
                "q3": 4.433502908796072e-06, 
                "iqr_outliers": 174, 
                "stddev_outliers": 37, 
                "outliers": "37;174", 
                "ld15iqr": 3.5740085877478123e-06, 
                "hd15iqr": 4.9505033530294895e-06, 
                "iterations": 2
            }, 
            "options": {
                "disable_gc": false, 
                "timer": "monotonic", 
                "min_rounds": 5, 
                "max_time": 0.1, 
                "min_time": 5e-06, 
                "warmup": 100000
            }
        }, 
        {
            "group": "getattr", 
            "name": "test_getattr[capnpyx]", 
            "fullname": "capnpy/benchmarks/test_benchmarks.py::test_getattr[capnpyx]", 
            "stats": {
                "min": 4.261033609509468e-06, 
                "max": 0.0005526639870367944, 
                "mean": 5.271450817333313e-06, 
                "stddev": 7.251854709560142e-06, 
                "rounds": 11723, 
                "median": 4.996021743863821e-06, 
                "iqr": 4.7194771468639374e-07, 
                "q1": 4.771514795720577e-06, 
                "q3": 5.243462510406971e-06, 
                "iqr_outliers": 537, 
                "stddev_outliers": 13, 
                "outliers": "13;537", 
                "ld15iqr": 4.261033609509468e-06, 
                "hd15iqr": 5.956506356596947e-06, 
                "iterations": 2
            }, 
            "options": {
                "disable_gc": false, 
                "timer": "monotonic", 
                "min_rounds": 5, 
                "max_time": 0.1, 
                "min_time": 5e-06, 
                "warmup": 100000
            }
        }, 
        {
            "group": "getattr", 
            "name": "test_getattr[instance]", 
            "fullname": "capnpy/benchmarks/test_benchmarks.py::test_getattr[instance]", 
            "stats": {
                "min": 3.562017809599638e-06, 
                "max": 0.00024644198128953576, 
                "mean": 4.287816346272149e-06, 
                "stddev": 2.900808843395612e-06, 
                "rounds": 14042, 
                "median": 4.233501385897398e-06, 
                "iqr": 3.2904790714383125e-07, 
                "q1": 3.922963514924049e-06, 
                "q3": 4.252011422067881e-06, 
                "iqr_outliers": 590, 
                "stddev_outliers": 426, 
                "outliers": "426;590", 
                "ld15iqr": 3.562017809599638e-06, 
                "hd15iqr": 4.78851143270731e-06, 
                "iterations": 2
            }, 
            "options": {
                "disable_gc": false, 
                "timer": "monotonic", 
                "min_rounds": 5, 
                "max_time": 0.1, 
                "min_time": 5e-06, 
                "warmup": 100000
            }
        }
    ], 
    "datetime": "2015-11-10T17:25:22.024503", 
    "version": "3.0.0"
}
