{
    "machine_info": {
        "node": "homer", 
        "processor": "x86_64", 
        "machine": "x86_64", 
        "python_compiler": "", 
        "python_implementation": "PyPy", 
        "python_version": "2.7.10", 
        "release": "3.13.0-48-generic", 
        "system": "Linux"
    }, 
    "commit_info": {
        "id": "88ca9853229a9bf51b3b0ee8aa02a07e3c9db71f", 
        "dirty": false
    }, 
    "benchmarks": [
        {
            "group": "getattr", 
            "name": "test_getattr[namedtuple]", 
            "fullname": "capnpy/benchmarks/test_benchmarks.py::TestGetAttr::()::test_getattr[namedtuple]", 
            "stats": {
                "min": 3.556022420525551e-06, 
                "max": 0.0003278205404058099, 
                "mean": 4.281127948618327e-06, 
                "stddev": 2.9411270252068554e-06, 
                "rounds": 14075, 
                "median": 4.235480446368456e-06, 
                "iqr": 2.6542693376541138e-08, 
                "q1": 4.2254687286913395e-06, 
                "q3": 4.252011422067881e-06, 
                "iqr_outliers": 5122, 
                "stddev_outliers": 29, 
                "outliers": "29;5122", 
                "ld15iqr": 4.186003934592009e-06, 
                "hd15iqr": 4.292000085115433e-06, 
                "iterations": 2
            }, 
            "options": {
                "disable_gc": false, 
                "timer": "monotonic", 
                "min_rounds": 5, 
                "max_time": 0.1, 
                "min_time": 5e-06, 
                "warmup": 100000
            }
        }, 
        {
            "group": "getattr", 
            "name": "test_getattr[capnpyx]", 
            "fullname": "capnpy/benchmarks/test_benchmarks.py::TestGetAttr::()::test_getattr[capnpyx]", 
            "stats": {
                "min": 5.015055648982525e-06, 
                "max": 0.001602079952135682, 
                "mean": 6.135889890918986e-06, 
                "stddev": 1.4208103845178474e-05, 
                "rounds": 19949, 
                "median": 5.690963007509708e-06, 
                "iqr": 7.601920515298843e-08, 
                "q1": 5.671987310051918e-06, 
                "q3": 5.7480065152049065e-06, 
                "iqr_outliers": 3973, 
                "stddev_outliers": 12, 
                "outliers": "12;3973", 
                "ld15iqr": 5.642999894917011e-06, 
                "hd15iqr": 5.8639561757445335e-06, 
                "iterations": 1
            }, 
            "options": {
                "disable_gc": false, 
                "timer": "monotonic", 
                "min_rounds": 5, 
                "max_time": 0.1, 
                "min_time": 5e-06, 
                "warmup": 100000
            }
        }, 
        {
            "group": "getattr", 
            "name": "test_getattr[instance]", 
            "fullname": "capnpy/benchmarks/test_benchmarks.py::TestGetAttr::()::test_getattr[instance]", 
            "stats": {
                "min": 3.5554985515773296e-06, 
                "max": 0.00026673648972064257, 
                "mean": 4.317659689619154e-06, 
                "stddev": 3.2348004468057325e-06, 
                "rounds": 14053, 
                "median": 4.228029865771532e-06, 
                "iqr": 3.280147211626172e-07, 
                "q1": 3.921028110198677e-06, 
                "q3": 4.249042831361294e-06, 
                "iqr_outliers": 707, 
                "stddev_outliers": 372, 
                "outliers": "372;707", 
                "ld15iqr": 3.5554985515773296e-06, 
                "hd15iqr": 4.743051249533892e-06, 
                "iterations": 2
            }, 
            "options": {
                "disable_gc": false, 
                "timer": "monotonic", 
                "min_rounds": 5, 
                "max_time": 0.1, 
                "min_time": 5e-06, 
                "warmup": 100000
            }
        }
    ], 
    "datetime": "2015-11-10T17:28:42.189294", 
    "version": "3.0.0"
}
