{
    "machine_info": {
        "node": "homer", 
        "processor": "x86_64", 
        "machine": "x86_64", 
        "python_compiler": "", 
        "python_implementation": "PyPy", 
        "python_version": "2.7.10", 
        "release": "3.13.0-48-generic", 
        "system": "Linux"
    }, 
    "commit_info": {
        "id": "f6cbfb8bec8db1a3724ab1ddacff07f4b143169e", 
        "dirty": false
    }, 
    "benchmarks": [
        {
            "group": "getattr", 
            "name": "test_getattr[namedtuple]", 
            "fullname": "capnpy/benchmarks/test_benchmarks.py::TestGetAttr::()::test_getattr[namedtuple]", 
            "stats": {
                "min": 3.552529960870743e-06, 
                "max": 0.00032627396285533905, 
                "mean": 4.370208870169589e-06, 
                "stddev": 2.8872174353590025e-06, 
                "rounds": 14075, 
                "median": 4.424015060067177e-06, 
                "iqr": 2.2095628082752228e-07, 
                "q1": 4.225003067404032e-06, 
                "q3": 4.445959348231554e-06, 
                "iqr_outliers": 541, 
                "stddev_outliers": 27, 
                "outliers": "27;541", 
                "ld15iqr": 3.893976099789143e-06, 
                "hd15iqr": 4.777975846081972e-06, 
                "iterations": 2
            }, 
            "options": {
                "disable_gc": false, 
                "timer": "monotonic", 
                "min_rounds": 5, 
                "max_time": 0.1, 
                "min_time": 5e-06, 
                "warmup": 100000
            }
        }, 
        {
            "group": "getattr", 
            "name": "test_getattr[capnpyx]", 
            "fullname": "capnpy/benchmarks/test_benchmarks.py::TestGetAttr::()::test_getattr[capnpyx]", 
            "stats": {
                "min": 4.994915798306465e-06, 
                "max": 0.001602737931534648, 
                "mean": 6.114361450410323e-06, 
                "stddev": 1.4047707289431853e-05, 
                "rounds": 19818, 
                "median": 5.687004886567593e-06, 
                "iqr": 6.204936653375626e-08, 
                "q1": 5.67000824958086e-06, 
                "q3": 5.732057616114616e-06, 
                "iqr_outliers": 3586, 
                "stddev_outliers": 15, 
                "outliers": "15;3586", 
                "ld15iqr": 5.634967237710953e-06, 
                "hd15iqr": 5.826004780828953e-06, 
                "iterations": 1
            }, 
            "options": {
                "disable_gc": false, 
                "timer": "monotonic", 
                "min_rounds": 5, 
                "max_time": 0.1, 
                "min_time": 5e-06, 
                "warmup": 100000
            }
        }, 
        {
            "group": "getattr", 
            "name": "test_getattr[instance]", 
            "fullname": "capnpy/benchmarks/test_benchmarks.py::TestGetAttr::()::test_getattr[instance]", 
            "stats": {
                "min": 3.556546289473772e-06, 
                "max": 0.0002592465025372803, 
                "mean": 4.314182606939147e-06, 
                "stddev": 3.0824761584056253e-06, 
                "rounds": 14059, 
                "median": 4.232977516949177e-06, 
                "iqr": 3.2549723982810974e-07, 
                "q1": 3.925000783056021e-06, 
                "q3": 4.2504980228841305e-06, 
                "iqr_outliers": 626, 
                "stddev_outliers": 400, 
                "outliers": "400;626", 
                "ld15iqr": 3.556546289473772e-06, 
                "hd15iqr": 4.747998900711536e-06, 
                "iterations": 2
            }, 
            "options": {
                "disable_gc": false, 
                "timer": "monotonic", 
                "min_rounds": 5, 
                "max_time": 0.1, 
                "min_time": 5e-06, 
                "warmup": 100000
            }
        }
    ], 
    "datetime": "2015-11-10T17:29:23.904004", 
    "version": "3.0.0"
}
